module git.sr.ht/~j-r/fdroid-news

go 1.23

toolchain go1.23.4

require (
	gopkg.in/yaml.v3 v3.0.1
	gorm.io/gorm v1.25.12
)

require (
	github.com/glebarez/sqlite v1.11.0
	github.com/google/uuid v1.6.0
	github.com/rs/zerolog v1.33.0
	github.com/xmppo/go-xmpp v0.2.7
)

require (
	github.com/dustin/go-humanize v1.0.1 // indirect
	github.com/glebarez/go-sqlite v1.22.0 // indirect
	github.com/jinzhu/inflection v1.0.0 // indirect
	github.com/jinzhu/now v1.1.5 // indirect
	github.com/mattn/go-colorable v0.1.13 // indirect
	github.com/mattn/go-isatty v0.0.20 // indirect
	github.com/ncruces/go-strftime v0.1.9 // indirect
	github.com/remyoudompheng/bigfft v0.0.0-20230129092748-24d4a6f8daec // indirect
	golang.org/x/crypto v0.30.0 // indirect
	golang.org/x/net v0.32.0 // indirect
	golang.org/x/sys v0.28.0 // indirect
	golang.org/x/text v0.21.0 // indirect
	modernc.org/libc v1.45.0 // indirect
	modernc.org/mathutil v1.6.0 // indirect
	modernc.org/memory v1.7.2 // indirect
	modernc.org/sqlite v1.29.5 // indirect
)
